PARTIALS=3, RESOLUTION=100 - CPU = 19.387869%, CPU_MAX = 19.436888%
PARTIALS=4, RESOLUTION=100 - CPU = 28.318628%, CPU_MAX = 28.370712%
PARTIALS=5, RESOLUTION=100 - CPU = 37.240196%, CPU_MAX = 37.319855%
PARTIALS=6, RESOLUTION=100 - CPU = 46.253677%, CPU_MAX = 46.443630%
PARTIALS=7, RESOLUTION=100 - CPU = 55.359066%, CPU_MAX = 55.677696%
PARTIALS=8, RESOLUTION=100 - CPU = 64.476715%, CPU_MAX = 64.917892%
PARTIALS=9, RESOLUTION=100 - CPU = 73.686272%, CPU_MAX = 74.225487%
PARTIALS=10, RESOLUTION=100 - CPU = 82.849876%, CPU_MAX = 83.563728%
PARTIALS=11, RESOLUTION=100 - CPU = 92.041054%, CPU_MAX = 93.055145%
